%YAML 1.1
%TAG !u! tag:unity3d.com,2011:
--- !u!1 &4187651078766523020
GameObject:
  m_ObjectHideFlags: 0
  m_CorrespondingSourceObject: {fileID: 0}
  m_PrefabInstance: {fileID: 0}
  m_PrefabAsset: {fileID: 0}
  serializedVersion: 6
  m_Component:
  - component: {fileID: 4187651078766808818}
  - component: {fileID: 4187651078772501982}
  - component: {fileID: 4187651078772504588}
  - component: {fileID: 4187651078766648603}
  - component: {fileID: 4187651078766648602}
  m_Layer: 0
  m_Name: RemoteAvatar
  m_TagString: Untagged
  m_Icon: {fileID: 0}
  m_NavMeshLayer: 0
  m_StaticEditorFlags: 0
  m_IsActive: 1
--- !u!4 &4187651078766808818
Transform:
  m_ObjectHideFlags: 0
  m_CorrespondingSourceObject: {fileID: 0}
  m_PrefabInstance: {fileID: 0}
  m_PrefabAsset: {fileID: 0}
  m_GameObject: {fileID: 4187651078766523020}
  m_LocalRotation: {x: 0, y: 0, z: 0, w: 1}
  m_LocalPosition: {x: 0, y: 0, z: 0}
  m_LocalScale: {x: 1, y: 1, z: 1}
  m_Children: []
  m_Father: {fileID: 0}
  m_RootOrder: 0
  m_LocalEulerAnglesHint: {x: 0, y: 0, z: 0}
--- !u!114 &4187651078772501982
MonoBehaviour:
  m_ObjectHideFlags: 0
  m_CorrespondingSourceObject: {fileID: 0}
  m_PrefabInstance: {fileID: 0}
  m_PrefabAsset: {fileID: 0}
  m_GameObject: {fileID: 4187651078766523020}
  m_Enabled: 1
  m_EditorHideFlags: 0
  m_Script: {fileID: 11500000, guid: 00f3402a2ea5bff4880c0313515240cd, type: 3}
  m_Name: 
  m_EditorClassIdentifier: 
  oculusUserID: 0
  Driver: {fileID: 4187651078772504588}
  EnableBody: 1
  EnableHands: 1
  EnableBase: 0
  EnableExpressive: 1
  RecordPackets: 0
  UseSDKPackets: 1
  PacketSettings:
    UpdateRate: 0.033333335
  StartWithControllers: 0
  FirstPersonLayer:
    layerIndex: 0
  ThirdPersonLayer:
    layerIndex: 0
  ShowFirstPerson: 0
  ShowThirdPerson: 1
  LevelOfDetail: 3
  UseTransparentRenderQueue: 1
  Monochrome_SurfaceShader: {fileID: 4800000, guid: 73f67c4e7bf718b4385aa6b1f8a06591,
    type: 3}
  Monochrome_SurfaceShader_SelfOccluding: {fileID: 4800000, guid: 69f342b79d37541489919a19cfd8a924,
    type: 3}
  Monochrome_SurfaceShader_PBS: {fileID: 4800000, guid: 5e52aa58207bbf24d8eb8ec969e9ae88,
    type: 3}
  Skinshaded_SurfaceShader_SingleComponent: {fileID: 4800000, guid: 36b8b481cf607814a8cec318f0148d63,
    type: 3}
  Skinshaded_VertFrag_SingleComponent: {fileID: 4800000, guid: c26fc51e445dcfd4db09305d861dc11c,
    type: 3}
  Skinshaded_VertFrag_CombinedMesh: {fileID: 4800000, guid: 37d2b8298f61cd2469465fc36108675d,
    type: 3}
  Skinshaded_Expressive_SurfaceShader_SingleComponent: {fileID: 4800000, guid: 93b478e926e46654889c1c20f87f253f,
    type: 3}
  Skinshaded_Expressive_VertFrag_SingleComponent: {fileID: 4800000, guid: 2fe0ac0c2373ab143a6f21314b785d7d,
    type: 3}
  Skinshaded_Expressive_VertFrag_CombinedMesh: {fileID: 4800000, guid: 0600fe59b0c043344affd1d1368b9ef2,
    type: 3}
  Loader_VertFrag_CombinedMesh: {fileID: 4800000, guid: 822f5e641dc5dd54ca9555b727b3277f,
    type: 3}
  EyeLens: {fileID: 4800000, guid: 8392f54e79937ed4bb1b692a143dc02b, type: 3}
  ControllerShader: {fileID: 4800000, guid: 28729c6ae5a33b04cb2f7956f3f3fc01, type: 3}
  CanOwnMicrophone: 1
  EnableLaughter: 1
  MouthAnchor: {fileID: 0}
  LeftHandCustomPose: {fileID: 0}
  RightHandCustomPose: {fileID: 0}
  VoiceAmplitude: 0
  EnableMouthVertexAnimation: 0
--- !u!114 &4187651078772504588
MonoBehaviour:
  m_ObjectHideFlags: 0
  m_CorrespondingSourceObject: {fileID: 0}
  m_PrefabInstance: {fileID: 0}
  m_PrefabAsset: {fileID: 0}
  m_GameObject: {fileID: 4187651078766523020}
  m_Enabled: 1
  m_EditorHideFlags: 0
  m_Script: {fileID: 11500000, guid: c198a42a3843ca04fa633b60f428ff51, type: 3}
  m_Name: 
  m_EditorClassIdentifier: 
  Mode: 0
--- !u!114 &4187651078766648603
MonoBehaviour:
  m_ObjectHideFlags: 0
  m_CorrespondingSourceObject: {fileID: 0}
  m_PrefabInstance: {fileID: 0}
  m_PrefabAsset: {fileID: 0}
  m_GameObject: {fileID: 4187651078766523020}
  m_Enabled: 1
  m_EditorHideFlags: 0
  m_Script: {fileID: 11500000, guid: aa584fbee541324448dd18d8409c7a41, type: 3}
  m_Name: 
  m_EditorClassIdentifier: 
  ObservedComponentsFoldoutOpen: 1
  Group: 0
  prefixField: -1
  Synchronization: 3
  OwnershipTransfer: 0
  ObservedComponents:
  - {fileID: 4187651078766648602}
  viewIdField: 0
  InstantiationId: 1
  isRuntimeInstantiated: 0
--- !u!114 &4187651078766648602
MonoBehaviour:
  m_ObjectHideFlags: 0
  m_CorrespondingSourceObject: {fileID: 0}
  m_PrefabInstance: {fileID: 0}
  m_PrefabAsset: {fileID: 0}
  m_GameObject: {fileID: 4187651078766523020}
  m_Enabled: 1
  m_EditorHideFlags: 0
  m_Script: {fileID: 11500000, guid: 7f12eec7fa5afba4d9f22eac2015e132, type: 3}
  m_Name: 
  m_EditorClassIdentifier: 
